Introducción al análisis de texto | el radaR
…
Ahora vamos a usar una funcion para tokenizar nuestro texto. En este caso el analisis lo podriamos pensar sobre palabras por separado, que en principio podrian ser nuestra unidad significativa de texto. ¿Podríamos usar los versos? La funcion que vamos a usar es unnest_tokens() de la biblioteca ‘tidytext’. Su uso más simple es usar los pipes de magrittr para pasarle el data frame como primer parámetro implícito, luego el nombre que queremos que la columna de tokens tenga y por último el nombre de la columna de origen donde deberia buscar el texto a tokenizar.

library(tidytext)

## Warning: package 'tidytext' was built under R version 3.5.1

texto_tokenizado <- poema_df %>%
  unnest_tokens(palabra_poema,texto)
texto_tokenizado

## # A tibble: 31 x 2
##    linea palabra_poema
##    <int> <chr>        
##  1     1 advertencia  
##  2     2 no           
##  3     2 se           
##  4     2 decirte      
##  5     3 si           
##  6     3 todo         
##  7     3 va           
##  8     3 a            
##  9     3 mejorar      
## 10     4 pero         
## # ... with 21 more rows

Veamos poner la lupa en un par de cositas bellas que nos dejo la función. En principio vemos que cada palabra quedo en una fila, estaríamos ahora en condiciones de afirmar que cada observacion esta contenida en un registro diferente. Luego vemos que para facilitar el manejo nos transformó todos los tokens a minusúculas; en el caso de no querer esto, podemos pasarle a la funcion como parametro to_lower = FALSE de la siguiente manera.

poema_df %>%
  unnest_tokens(palabra_poema,texto, to_lower = FALSE)

## # A tibble: 31 x 2
##    linea palabra_poema
##    <int> <chr>        
##  1     1 ADVERTENCIA  
##  2     2 No           
##  3     2 se           
##  4     2 decirte      
##  5     3 si           
##  6     3 todo         
##  7     3 va           
##  8     3 a            
##  9     3 mejorar      
## 10     4 pero         
## # ... with 21 more rows

Completemos un circuito basico de analisis y armemos unas visualizaciones

Vamos entonces a imaginar que tenemos varios textos consecutivos (poemas en nuestro caso) para hacer un poco más divertido el análisis.

varios_poemas <- poema_df %>% 
    bind_rows(poema2_df, poema3_df, poema4_df)

## # A tibble: 23 x 1
##    texto                       
##    <chr>                       
##  1 ADVERTENCIA:                
##  2 No se decirte               
##  3 si todo va a mejorar        
##  4 pero seguro la ficha        
##  5 que te hizo ser quien sos   
##  6 te cayo despues             
##  7 de uno de los peores        
##  8 dias de tu vida             
##  9 ENTRE NOSOTROS:             
## 10 Quisiera saber si alguna vez
## # ... with 13 more rows
…
poema_df %>% 
    filter(str_detect(texto, 'de')) 

## # A tibble: 4 x 2
##   linea texto               
##   <int> <chr>               
## 1     2 No se decirte       
## 2     6 te cayo despues     
## 3     7 de uno de los peores
## 4     8 dias de tu vida

Volvamos ahora al caso donde teniamos todos los poemas juntos, ¿sería posible identificar de alguna manera cada poema por separado?

## # A tibble: 23 x 1
##    texto                       
##    <chr>                       
##  1 ADVERTENCIA:                
##  2 No se decirte               
##  3 si todo va a mejorar        
##  4 pero seguro la ficha        
##  5 que te hizo ser quien sos   
##  6 te cayo despues             
##  7 de uno de los peores        
##  8 dias de tu vida             
##  9 ENTRE NOSOTROS:             
## 10 Quisiera saber si alguna vez
## # ... with 13 more rows

Busquemos entonces generar un corte cada vez que encuentre los ‘:’, que es en este caso por lo menos lo que nos indica que hay un titulo. Una funcion que nos podria servir es cumsum(), que nos va a mantener un contador como suma acumulada cada vez que se cumpla una condicion que le pasemos por parametro.

poemas_separados <- varios_poemas %>%
  mutate(poema = cumsum(str_detect(texto, ':')))

poemas_separados

## # A tibble: 23 x 2
##    texto                        poema
##    <chr>                        <int>
##  1 ADVERTENCIA:                     1
##  2 No se decirte                    1
##  3 si todo va a mejorar             1
##  4 pero seguro la ficha             1
##  5 que te hizo ser quien sos        1
##  6 te cayo despues                  1
##  7 de uno de los peores             1
##  8 dias de tu vida                  1
##  9 ENTRE NOSOTROS:                  2
## 10 Quisiera saber si alguna vez     2
## # ... with 13 more rows
…
